{
	"credit": "Made with Blockbench",
	"textures": {
		"0": "ava:item/gun_textures/palette_black",
		"particle": "ava:item/gun_textures/palette_black"
	},
	"elements": [
		{
			"from": [6.5, 9.72568, 7.025],
			"to": [8, 9.97568, 7.275],
			"rotation": {"angle": 0, "axis": "z", "origin": [6.75, 9.85068, 15.025]},
			"faces": {
				"north": {"uv": [4, 0, 6, 2], "texture": "#0"},
				"east": {"uv": [4, 0, 6, 2], "texture": "#0"},
				"south": {"uv": [4, 0, 6, 2], "texture": "#0"},
				"west": {"uv": [4, 0, 6, 2], "texture": "#0"},
				"up": {"uv": [4, 0, 6, 2], "texture": "#0"},
				"down": {"uv": [4, 0, 6, 2], "texture": "#0"}
			}
		}
	],
	"groups": [
		{
			"name": "handle",
			"origin": [8, 3.125, 12.275],
			"children": [0]
		}
	]
}