{
	"credit": "Made with Blockbench",
	"textures": {
		"0": "ava:item/gun_textures/palette_kuyo_mon",
		"particle": "ava:item/gun_textures/palette_kuyo_mon"
	},
	"elements": [
		{
			"name": "MK_0",
			"from": [7.4998, 2.07821, 8.3454],
			"to": [8.4998, 6.08125, 8.49746],
			"rotation": {"angle": 0, "axis": "y", "origin": [7.50781, 3.06416, 8.97619]},
			"faces": {
				"north": {"uv": [0, 0, 1, 2], "texture": "#0"},
				"east": {"uv": [0, 0, 1, 2], "texture": "#0"},
				"south": {"uv": [0, 0, 1, 2], "texture": "#0"},
				"west": {"uv": [0, 0, 1, 2], "texture": "#0"},
				"up": {"uv": [0, 0, 1, 2], "texture": "#0"},
				"down": {"uv": [0, 0, 1, 2], "texture": "#0"}
			}
		},
		{
			"name": "MK_1",
			"from": [7.4998, 2.07821, 8.31499],
			"to": [8.4998, 6.05022, 8.3454],
			"rotation": {"angle": 0, "axis": "y", "origin": [7.50781, 3.06416, 8.97619]},
			"faces": {
				"north": {"uv": [0, 0, 1, 2], "texture": "#0"},
				"east": {"uv": [0, 0, 1, 2], "texture": "#0"},
				"south": {"uv": [0, 0, 1, 2], "texture": "#0"},
				"west": {"uv": [0, 0, 1, 2], "texture": "#0"},
				"up": {"uv": [0, 0, 1, 2], "texture": "#0"},
				"down": {"uv": [0, 0, 1, 2], "texture": "#0"}
			}
		},
		{
			"name": "MK_2",
			"from": [7.4998, 2.01614, 8.49746],
			"to": [8.4998, 6.05022, 8.64951],
			"rotation": {"angle": 0, "axis": "y", "origin": [7.50781, 3.06416, 8.97619]},
			"faces": {
				"north": {"uv": [0, 0, 1, 2], "texture": "#0"},
				"east": {"uv": [0, 0, 1, 2], "texture": "#0"},
				"south": {"uv": [0, 0, 1, 2], "texture": "#0"},
				"west": {"uv": [0, 0, 1, 2], "texture": "#0"},
				"up": {"uv": [0, 0, 1, 2], "texture": "#0"},
				"down": {"uv": [0, 0, 1, 2], "texture": "#0"}
			}
		},
		{
			"name": "MK_3",
			"from": [7.4998, 1.95408, 8.64951],
			"to": [8.4998, 6.01919, 8.86238],
			"rotation": {"angle": 0, "axis": "y", "origin": [7.50781, 3.06416, 8.97619]},
			"faces": {
				"north": {"uv": [0, 0, 1, 2], "texture": "#0"},
				"east": {"uv": [0, 0, 1, 2], "texture": "#0"},
				"south": {"uv": [0, 0, 1, 2], "texture": "#0"},
				"west": {"uv": [0, 0, 1, 2], "texture": "#0"},
				"up": {"uv": [0, 0, 1, 2], "texture": "#0"},
				"down": {"uv": [0, 0, 1, 2], "texture": "#0"}
			}
		},
		{
			"name": "MK_4",
			"from": [7.4998, 2.07821, 8.28458],
			"to": [8.4998, 5.98816, 8.31499],
			"rotation": {"angle": 0, "axis": "y", "origin": [7.50781, 3.06416, 8.97619]},
			"faces": {
				"north": {"uv": [0, 0, 1, 2], "texture": "#0"},
				"east": {"uv": [0, 0, 1, 2], "texture": "#0"},
				"south": {"uv": [0, 0, 1, 2], "texture": "#0"},
				"west": {"uv": [0, 0, 1, 2], "texture": "#0"},
				"up": {"uv": [0, 0, 1, 2], "texture": "#0"},
				"down": {"uv": [0, 0, 1, 2], "texture": "#0"}
			}
		},
		{
			"name": "MK_5",
			"from": [7.4998, 1.86099, 8.86238],
			"to": [8.4998, 5.98816, 9.04485],
			"rotation": {"angle": 0, "axis": "y", "origin": [7.50781, 3.06416, 8.97619]},
			"faces": {
				"north": {"uv": [0, 0, 1, 2], "texture": "#0"},
				"east": {"uv": [0, 0, 1, 2], "texture": "#0"},
				"south": {"uv": [0, 0, 1, 2], "texture": "#0"},
				"west": {"uv": [0, 0, 1, 2], "texture": "#0"},
				"up": {"uv": [0, 0, 1, 2], "texture": "#0"},
				"down": {"uv": [0, 0, 1, 2], "texture": "#0"}
			}
		},
		{
			"name": "MK_6",
			"from": [7.4998, 1.79892, 9.04485],
			"to": [8.4998, 5.95712, 9.16649],
			"rotation": {"angle": 0, "axis": "y", "origin": [7.50781, 3.06416, 8.97619]},
			"faces": {
				"north": {"uv": [0, 0, 1, 2], "texture": "#0"},
				"east": {"uv": [0, 0, 1, 2], "texture": "#0"},
				"south": {"uv": [0, 0, 1, 2], "texture": "#0"},
				"west": {"uv": [0, 0, 1, 2], "texture": "#0"},
				"up": {"uv": [0, 0, 1, 2], "texture": "#0"},
				"down": {"uv": [0, 0, 1, 2], "texture": "#0"}
			}
		},
		{
			"name": "MK_7",
			"from": [7.4998, 1.76789, 9.16649],
			"to": [8.4998, 5.92609, 9.59224],
			"rotation": {"angle": 0, "axis": "y", "origin": [7.50781, 3.06416, 8.97619]},
			"faces": {
				"north": {"uv": [2, 0, 4, 2], "texture": "#0"},
				"east": {"uv": [2, 0, 4, 2], "texture": "#0"},
				"south": {"uv": [2, 0, 4, 2], "texture": "#0"},
				"west": {"uv": [2, 0, 4, 2], "texture": "#0"},
				"up": {"uv": [2, 0, 4, 2], "texture": "#0"},
				"down": {"uv": [2, 0, 4, 2], "texture": "#0"}
			}
		},
		{
			"name": "MK_8",
			"from": [7.4998, 5.46789, 8.29149],
			"to": [8.4998, 6.46789, 10.39149],
			"rotation": {"angle": 0, "axis": "y", "origin": [7.50781, 6.76416, 8.10119]},
			"faces": {
				"north": {"uv": [0, 0, 1, 2], "texture": "#0"},
				"east": {"uv": [0, 0, 1, 2], "texture": "#0"},
				"south": {"uv": [0, 0, 1, 2], "texture": "#0"},
				"west": {"uv": [0, 0, 1, 2], "texture": "#0"},
				"up": {"uv": [0, 0, 1, 2], "texture": "#0"},
				"down": {"uv": [0, 0, 1, 2], "texture": "#0"}
			}
		},
		{
			"name": "MK_8",
			"from": [7.4998, 1.64377, 9.59224],
			"to": [8.4998, 5.89506, 9.62265],
			"rotation": {"angle": 0, "axis": "y", "origin": [7.50781, 3.06416, 8.97619]},
			"faces": {
				"north": {"uv": [0, 0, 1, 2], "texture": "#0"},
				"east": {"uv": [0, 0, 1, 2], "texture": "#0"},
				"south": {"uv": [0, 0, 1, 2], "texture": "#0"},
				"west": {"uv": [0, 0, 1, 2], "texture": "#0"},
				"up": {"uv": [0, 0, 1, 2], "texture": "#0"},
				"down": {"uv": [0, 0, 1, 2], "texture": "#0"}
			}
		},
		{
			"name": "MK_9",
			"from": [7.4998, 1.64377, 9.62265],
			"to": [8.4998, 5.86403, 9.68347],
			"rotation": {"angle": 0, "axis": "y", "origin": [7.50781, 3.06416, 8.97619]},
			"faces": {
				"north": {"uv": [0, 0, 1, 2], "texture": "#0"},
				"east": {"uv": [0, 0, 1, 2], "texture": "#0"},
				"south": {"uv": [0, 0, 1, 2], "texture": "#0"},
				"west": {"uv": [0, 0, 1, 2], "texture": "#0"},
				"up": {"uv": [0, 0, 1, 2], "texture": "#0"},
				"down": {"uv": [0, 0, 1, 2], "texture": "#0"}
			}
		},
		{
			"name": "MK_10",
			"from": [7.4998, 1.64377, 9.68347],
			"to": [8.4998, 5.833, 9.74429],
			"rotation": {"angle": 0, "axis": "y", "origin": [7.50781, 3.06416, 8.97619]},
			"faces": {
				"north": {"uv": [0, 0, 1, 2], "texture": "#0"},
				"east": {"uv": [0, 0, 1, 2], "texture": "#0"},
				"south": {"uv": [0, 0, 1, 2], "texture": "#0"},
				"west": {"uv": [0, 0, 1, 2], "texture": "#0"},
				"up": {"uv": [0, 0, 1, 2], "texture": "#0"},
				"down": {"uv": [0, 0, 1, 2], "texture": "#0"}
			}
		},
		{
			"name": "MK_11",
			"from": [7.4998, 1.73686, 9.74429],
			"to": [8.4998, 5.80197, 9.80512],
			"rotation": {"angle": 0, "axis": "y", "origin": [7.50781, 3.06416, 8.97619]},
			"faces": {
				"north": {"uv": [0, 0, 1, 2], "texture": "#0"},
				"east": {"uv": [0, 0, 1, 2], "texture": "#0"},
				"south": {"uv": [0, 0, 1, 2], "texture": "#0"},
				"west": {"uv": [0, 0, 1, 2], "texture": "#0"},
				"up": {"uv": [0, 0, 1, 2], "texture": "#0"},
				"down": {"uv": [0, 0, 1, 2], "texture": "#0"}
			}
		},
		{
			"name": "MK_12",
			"from": [7.4998, 2.07821, 9.80512],
			"to": [8.4998, 5.77094, 9.89635],
			"rotation": {"angle": 0, "axis": "y", "origin": [7.50781, 3.06416, 8.97619]},
			"faces": {
				"north": {"uv": [0, 0, 1, 2], "texture": "#0"},
				"east": {"uv": [0, 0, 1, 2], "texture": "#0"},
				"south": {"uv": [0, 0, 1, 2], "texture": "#0"},
				"west": {"uv": [0, 0, 1, 2], "texture": "#0"},
				"up": {"uv": [0, 0, 1, 2], "texture": "#0"},
				"down": {"uv": [0, 0, 1, 2], "texture": "#0"}
			}
		},
		{
			"name": "MK_13",
			"from": [7.4998, 2.48161, 9.89635],
			"to": [8.4998, 5.7399, 10.01799],
			"rotation": {"angle": 0, "axis": "y", "origin": [7.50781, 3.06416, 8.97619]},
			"faces": {
				"north": {"uv": [0, 0, 1, 2], "texture": "#0"},
				"east": {"uv": [0, 0, 1, 2], "texture": "#0"},
				"south": {"uv": [0, 0, 1, 2], "texture": "#0"},
				"west": {"uv": [0, 0, 1, 2], "texture": "#0"},
				"up": {"uv": [0, 0, 1, 2], "texture": "#0"},
				"down": {"uv": [0, 0, 1, 2], "texture": "#0"}
			}
		},
		{
			"name": "MK_14",
			"from": [7.4998, 3.13327, 10.01799],
			"to": [8.4998, 5.70887, 10.17005],
			"rotation": {"angle": 0, "axis": "y", "origin": [7.50781, 3.06416, 8.97619]},
			"faces": {
				"north": {"uv": [0, 0, 1, 2], "texture": "#0"},
				"east": {"uv": [0, 0, 1, 2], "texture": "#0"},
				"south": {"uv": [0, 0, 1, 2], "texture": "#0"},
				"west": {"uv": [0, 0, 1, 2], "texture": "#0"},
				"up": {"uv": [0, 0, 1, 2], "texture": "#0"},
				"down": {"uv": [0, 0, 1, 2], "texture": "#0"}
			}
		},
		{
			"name": "MK_15",
			"from": [7.4998, 3.6608, 10.17005],
			"to": [8.4998, 5.67784, 10.26128],
			"rotation": {"angle": 0, "axis": "y", "origin": [7.50781, 3.06416, 8.97619]},
			"faces": {
				"north": {"uv": [0, 0, 1, 2], "texture": "#0"},
				"east": {"uv": [0, 0, 1, 2], "texture": "#0"},
				"south": {"uv": [0, 0, 1, 2], "texture": "#0"},
				"west": {"uv": [0, 0, 1, 2], "texture": "#0"},
				"up": {"uv": [0, 0, 1, 2], "texture": "#0"},
				"down": {"uv": [0, 0, 1, 2], "texture": "#0"}
			}
		},
		{
			"name": "MK_16",
			"from": [7.4998, 3.84699, 10.26128],
			"to": [8.4998, 5.64681, 10.29169],
			"rotation": {"angle": 0, "axis": "y", "origin": [7.50781, 3.06416, 8.97619]},
			"faces": {
				"north": {"uv": [0, 0, 1, 2], "texture": "#0"},
				"east": {"uv": [0, 0, 1, 2], "texture": "#0"},
				"south": {"uv": [0, 0, 1, 2], "texture": "#0"},
				"west": {"uv": [0, 0, 1, 2], "texture": "#0"},
				"up": {"uv": [0, 0, 1, 2], "texture": "#0"},
				"down": {"uv": [0, 0, 1, 2], "texture": "#0"}
			}
		},
		{
			"name": "MK_17",
			"from": [7.4998, 4.03318, 10.29169],
			"to": [8.4998, 5.58475, 10.3221],
			"rotation": {"angle": 0, "axis": "y", "origin": [7.50781, 3.06416, 8.97619]},
			"faces": {
				"north": {"uv": [0, 0, 1, 2], "texture": "#0"},
				"east": {"uv": [0, 0, 1, 2], "texture": "#0"},
				"south": {"uv": [0, 0, 1, 2], "texture": "#0"},
				"west": {"uv": [0, 0, 1, 2], "texture": "#0"},
				"up": {"uv": [0, 0, 1, 2], "texture": "#0"},
				"down": {"uv": [0, 0, 1, 2], "texture": "#0"}
			}
		},
		{
			"name": "MK_18",
			"from": [7.4998, 4.18834, 10.3221],
			"to": [8.4998, 5.52269, 10.35251],
			"rotation": {"angle": 0, "axis": "y", "origin": [7.50781, 3.06416, 8.97619]},
			"faces": {
				"north": {"uv": [0, 0, 1, 2], "texture": "#0"},
				"east": {"uv": [0, 0, 1, 2], "texture": "#0"},
				"south": {"uv": [0, 0, 1, 2], "texture": "#0"},
				"west": {"uv": [0, 0, 1, 2], "texture": "#0"},
				"up": {"uv": [0, 0, 1, 2], "texture": "#0"},
				"down": {"uv": [0, 0, 1, 2], "texture": "#0"}
			}
		},
		{
			"name": "MK_19",
			"from": [7.4998, 5.11928, 10.35251],
			"to": [8.4998, 5.46062, 10.38292],
			"rotation": {"angle": 0, "axis": "y", "origin": [7.50781, 3.06416, 8.97619]},
			"faces": {
				"north": {"uv": [0, 0, 1, 2], "texture": "#0"},
				"east": {"uv": [0, 0, 1, 2], "texture": "#0"},
				"south": {"uv": [0, 0, 1, 2], "texture": "#0"},
				"west": {"uv": [0, 0, 1, 2], "texture": "#0"},
				"up": {"uv": [0, 0, 1, 2], "texture": "#0"},
				"down": {"uv": [0, 0, 1, 2], "texture": "#0"}
			}
		},
		{
			"name": "MK_20",
			"from": [7.4998, 2.10924, 8.25417],
			"to": [8.4998, 4.65381, 8.28458],
			"rotation": {"angle": 0, "axis": "y", "origin": [7.50781, 3.06416, 8.97619]},
			"faces": {
				"north": {"uv": [0, 0, 1, 2], "texture": "#0"},
				"east": {"uv": [0, 0, 1, 2], "texture": "#0"},
				"south": {"uv": [0, 0, 1, 2], "texture": "#0"},
				"west": {"uv": [0, 0, 1, 2], "texture": "#0"},
				"up": {"uv": [0, 0, 1, 2], "texture": "#0"},
				"down": {"uv": [0, 0, 1, 2], "texture": "#0"}
			}
		},
		{
			"name": "MK_21",
			"from": [7.4998, 2.10924, 8.22376],
			"to": [8.4998, 4.59174, 8.25417],
			"rotation": {"angle": 0, "axis": "y", "origin": [7.50781, 3.06416, 8.97619]},
			"faces": {
				"north": {"uv": [0, 0, 1, 2], "texture": "#0"},
				"east": {"uv": [0, 0, 1, 2], "texture": "#0"},
				"south": {"uv": [0, 0, 1, 2], "texture": "#0"},
				"west": {"uv": [0, 0, 1, 2], "texture": "#0"},
				"up": {"uv": [0, 0, 1, 2], "texture": "#0"},
				"down": {"uv": [0, 0, 1, 2], "texture": "#0"}
			}
		},
		{
			"name": "MK_22",
			"from": [7.4998, 2.10924, 8.19335],
			"to": [8.4998, 4.52968, 8.22376],
			"rotation": {"angle": 0, "axis": "y", "origin": [7.50781, 3.06416, 8.97619]},
			"faces": {
				"north": {"uv": [0, 0, 1, 2], "texture": "#0"},
				"east": {"uv": [0, 0, 1, 2], "texture": "#0"},
				"south": {"uv": [0, 0, 1, 2], "texture": "#0"},
				"west": {"uv": [0, 0, 1, 2], "texture": "#0"},
				"up": {"uv": [0, 0, 1, 2], "texture": "#0"},
				"down": {"uv": [0, 0, 1, 2], "texture": "#0"}
			}
		},
		{
			"name": "MK_23",
			"from": [7.4998, 2.10924, 8.16294],
			"to": [8.4998, 4.49865, 8.19335],
			"rotation": {"angle": 0, "axis": "y", "origin": [7.50781, 3.06416, 8.97619]},
			"faces": {
				"north": {"uv": [0, 0, 1, 2], "texture": "#0"},
				"east": {"uv": [0, 0, 1, 2], "texture": "#0"},
				"south": {"uv": [0, 0, 1, 2], "texture": "#0"},
				"west": {"uv": [0, 0, 1, 2], "texture": "#0"},
				"up": {"uv": [0, 0, 1, 2], "texture": "#0"},
				"down": {"uv": [0, 0, 1, 2], "texture": "#0"}
			}
		},
		{
			"name": "MK_24",
			"from": [7.4998, 2.14027, 8.13253],
			"to": [8.4998, 4.43659, 8.16294],
			"rotation": {"angle": 0, "axis": "y", "origin": [7.50781, 3.06416, 8.97619]},
			"faces": {
				"north": {"uv": [0, 0, 1, 2], "texture": "#0"},
				"east": {"uv": [0, 0, 1, 2], "texture": "#0"},
				"south": {"uv": [0, 0, 1, 2], "texture": "#0"},
				"west": {"uv": [0, 0, 1, 2], "texture": "#0"},
				"up": {"uv": [0, 0, 1, 2], "texture": "#0"},
				"down": {"uv": [0, 0, 1, 2], "texture": "#0"}
			}
		},
		{
			"name": "MK_25",
			"from": [7.4998, 2.14027, 8.10212],
			"to": [8.4998, 4.40556, 8.13253],
			"rotation": {"angle": 0, "axis": "y", "origin": [7.50781, 3.06416, 8.97619]},
			"faces": {
				"north": {"uv": [0, 0, 1, 2], "texture": "#0"},
				"east": {"uv": [0, 0, 1, 2], "texture": "#0"},
				"south": {"uv": [0, 0, 1, 2], "texture": "#0"},
				"west": {"uv": [0, 0, 1, 2], "texture": "#0"},
				"up": {"uv": [0, 0, 1, 2], "texture": "#0"},
				"down": {"uv": [0, 0, 1, 2], "texture": "#0"}
			}
		},
		{
			"name": "MK_26",
			"from": [7.4998, 2.14027, 8.07171],
			"to": [8.4998, 4.34349, 8.10212],
			"rotation": {"angle": 0, "axis": "y", "origin": [7.50781, 3.06416, 8.97619]},
			"faces": {
				"north": {"uv": [0, 0, 1, 2], "texture": "#0"},
				"east": {"uv": [0, 0, 1, 2], "texture": "#0"},
				"south": {"uv": [0, 0, 1, 2], "texture": "#0"},
				"west": {"uv": [0, 0, 1, 2], "texture": "#0"},
				"up": {"uv": [0, 0, 1, 2], "texture": "#0"},
				"down": {"uv": [0, 0, 1, 2], "texture": "#0"}
			}
		},
		{
			"name": "MK_27",
			"from": [7.4998, 2.1713, 8.04129],
			"to": [8.4998, 4.21937, 8.07171],
			"rotation": {"angle": 0, "axis": "y", "origin": [7.50781, 3.06416, 8.97619]},
			"faces": {
				"north": {"uv": [0, 0, 1, 2], "texture": "#0"},
				"east": {"uv": [0, 0, 1, 2], "texture": "#0"},
				"south": {"uv": [0, 0, 1, 2], "texture": "#0"},
				"west": {"uv": [0, 0, 1, 2], "texture": "#0"},
				"up": {"uv": [0, 0, 1, 2], "texture": "#0"},
				"down": {"uv": [0, 0, 1, 2], "texture": "#0"}
			}
		},
		{
			"name": "MK_28",
			"from": [7.4998, 2.20233, 8.01088],
			"to": [8.4998, 4.03318, 8.04129],
			"rotation": {"angle": 0, "axis": "y", "origin": [7.50781, 3.06416, 8.97619]},
			"faces": {
				"north": {"uv": [0, 0, 1, 2], "texture": "#0"},
				"east": {"uv": [0, 0, 1, 2], "texture": "#0"},
				"south": {"uv": [0, 0, 1, 2], "texture": "#0"},
				"west": {"uv": [0, 0, 1, 2], "texture": "#0"},
				"up": {"uv": [0, 0, 1, 2], "texture": "#0"},
				"down": {"uv": [0, 0, 1, 2], "texture": "#0"}
			}
		},
		{
			"name": "MK_29",
			"from": [7.4998, 2.20233, 7.98047],
			"to": [8.4998, 3.87802, 8.01088],
			"rotation": {"angle": 0, "axis": "y", "origin": [7.50781, 3.06416, 8.97619]},
			"faces": {
				"north": {"uv": [0, 0, 1, 2], "texture": "#0"},
				"east": {"uv": [0, 0, 1, 2], "texture": "#0"},
				"south": {"uv": [0, 0, 1, 2], "texture": "#0"},
				"west": {"uv": [0, 0, 1, 2], "texture": "#0"},
				"up": {"uv": [0, 0, 1, 2], "texture": "#0"},
				"down": {"uv": [0, 0, 1, 2], "texture": "#0"}
			}
		},
		{
			"name": "MK_30",
			"from": [7.4998, 2.20233, 7.95006],
			"to": [8.4998, 3.72287, 7.98047],
			"rotation": {"angle": 0, "axis": "y", "origin": [7.50781, 3.06416, 8.97619]},
			"faces": {
				"north": {"uv": [0, 0, 1, 2], "texture": "#0"},
				"east": {"uv": [0, 0, 1, 2], "texture": "#0"},
				"south": {"uv": [0, 0, 1, 2], "texture": "#0"},
				"west": {"uv": [0, 0, 1, 2], "texture": "#0"},
				"up": {"uv": [0, 0, 1, 2], "texture": "#0"},
				"down": {"uv": [0, 0, 1, 2], "texture": "#0"}
			}
		},
		{
			"name": "MK_31",
			"from": [7.4998, 3.47462, 10.17005],
			"to": [8.4998, 3.6608, 10.23087],
			"rotation": {"angle": 0, "axis": "y", "origin": [7.50781, 3.06416, 8.97619]},
			"faces": {
				"north": {"uv": [0, 0, 1, 2], "texture": "#0"},
				"east": {"uv": [0, 0, 1, 2], "texture": "#0"},
				"south": {"uv": [0, 0, 1, 2], "texture": "#0"},
				"west": {"uv": [0, 0, 1, 2], "texture": "#0"},
				"up": {"uv": [0, 0, 1, 2], "texture": "#0"},
				"down": {"uv": [0, 0, 1, 2], "texture": "#0"}
			}
		},
		{
			"name": "MK_32",
			"from": [7.4998, 2.23336, 7.91965],
			"to": [8.4998, 3.62977, 7.95006],
			"rotation": {"angle": 0, "axis": "y", "origin": [7.50781, 3.06416, 8.97619]},
			"faces": {
				"north": {"uv": [0, 0, 1, 2], "texture": "#0"},
				"east": {"uv": [0, 0, 1, 2], "texture": "#0"},
				"south": {"uv": [0, 0, 1, 2], "texture": "#0"},
				"west": {"uv": [0, 0, 1, 2], "texture": "#0"},
				"up": {"uv": [0, 0, 1, 2], "texture": "#0"},
				"down": {"uv": [0, 0, 1, 2], "texture": "#0"}
			}
		},
		{
			"name": "MK_33",
			"from": [7.4998, 2.23336, 7.88924],
			"to": [8.4998, 3.50565, 7.91965],
			"rotation": {"angle": 0, "axis": "y", "origin": [7.50781, 3.06416, 8.97619]},
			"faces": {
				"north": {"uv": [0, 0, 1, 2], "texture": "#0"},
				"east": {"uv": [0, 0, 1, 2], "texture": "#0"},
				"south": {"uv": [0, 0, 1, 2], "texture": "#0"},
				"west": {"uv": [0, 0, 1, 2], "texture": "#0"},
				"up": {"uv": [0, 0, 1, 2], "texture": "#0"},
				"down": {"uv": [0, 0, 1, 2], "texture": "#0"}
			}
		},
		{
			"name": "MK_34",
			"from": [7.4998, 3.31946, 10.17005],
			"to": [8.4998, 3.47462, 10.20046],
			"rotation": {"angle": 0, "axis": "y", "origin": [7.50781, 3.06416, 8.97619]},
			"faces": {
				"north": {"uv": [0, 0, 1, 2], "texture": "#0"},
				"east": {"uv": [0, 0, 1, 2], "texture": "#0"},
				"south": {"uv": [0, 0, 1, 2], "texture": "#0"},
				"west": {"uv": [0, 0, 1, 2], "texture": "#0"},
				"up": {"uv": [0, 0, 1, 2], "texture": "#0"},
				"down": {"uv": [0, 0, 1, 2], "texture": "#0"}
			}
		},
		{
			"name": "MK_35",
			"from": [7.4998, 2.26439, 7.85883],
			"to": [8.4998, 3.41255, 7.88924],
			"rotation": {"angle": 0, "axis": "y", "origin": [7.50781, 3.06416, 8.97619]},
			"faces": {
				"north": {"uv": [0, 0, 1, 2], "texture": "#0"},
				"east": {"uv": [0, 0, 1, 2], "texture": "#0"},
				"south": {"uv": [0, 0, 1, 2], "texture": "#0"},
				"west": {"uv": [0, 0, 1, 2], "texture": "#0"},
				"up": {"uv": [0, 0, 1, 2], "texture": "#0"},
				"down": {"uv": [0, 0, 1, 2], "texture": "#0"}
			}
		},
		{
			"name": "MK_36",
			"from": [7.4998, 2.26439, 7.82842],
			"to": [8.4998, 3.31946, 7.85883],
			"rotation": {"angle": 0, "axis": "y", "origin": [7.50781, 3.06416, 8.97619]},
			"faces": {
				"north": {"uv": [0, 0, 1, 2], "texture": "#0"},
				"east": {"uv": [0, 0, 1, 2], "texture": "#0"},
				"south": {"uv": [0, 0, 1, 2], "texture": "#0"},
				"west": {"uv": [0, 0, 1, 2], "texture": "#0"},
				"up": {"uv": [0, 0, 1, 2], "texture": "#0"},
				"down": {"uv": [0, 0, 1, 2], "texture": "#0"}
			}
		},
		{
			"name": "MK_37",
			"from": [7.4998, 2.26439, 7.79801],
			"to": [8.4998, 3.22637, 7.82842],
			"rotation": {"angle": 0, "axis": "y", "origin": [7.50781, 3.06416, 8.97619]},
			"faces": {
				"north": {"uv": [0, 0, 1, 2], "texture": "#0"},
				"east": {"uv": [0, 0, 1, 2], "texture": "#0"},
				"south": {"uv": [0, 0, 1, 2], "texture": "#0"},
				"west": {"uv": [0, 0, 1, 2], "texture": "#0"},
				"up": {"uv": [0, 0, 1, 2], "texture": "#0"},
				"down": {"uv": [0, 0, 1, 2], "texture": "#0"}
			}
		},
		{
			"name": "MK_38",
			"from": [7.4998, 2.26439, 7.7676],
			"to": [8.4998, 3.13327, 7.79801],
			"rotation": {"angle": 0, "axis": "y", "origin": [7.50781, 3.06416, 8.97619]},
			"faces": {
				"north": {"uv": [0, 0, 1, 2], "texture": "#0"},
				"east": {"uv": [0, 0, 1, 2], "texture": "#0"},
				"south": {"uv": [0, 0, 1, 2], "texture": "#0"},
				"west": {"uv": [0, 0, 1, 2], "texture": "#0"},
				"up": {"uv": [0, 0, 1, 2], "texture": "#0"},
				"down": {"uv": [0, 0, 1, 2], "texture": "#0"}
			}
		},
		{
			"name": "MK_39",
			"from": [7.4998, 2.94708, 10.01799],
			"to": [8.4998, 3.13327, 10.13963],
			"rotation": {"angle": 0, "axis": "y", "origin": [7.50781, 3.06416, 8.97619]},
			"faces": {
				"north": {"uv": [0, 0, 1, 2], "texture": "#0"},
				"east": {"uv": [0, 0, 1, 2], "texture": "#0"},
				"south": {"uv": [0, 0, 1, 2], "texture": "#0"},
				"west": {"uv": [0, 0, 1, 2], "texture": "#0"},
				"up": {"uv": [0, 0, 1, 2], "texture": "#0"},
				"down": {"uv": [0, 0, 1, 2], "texture": "#0"}
			}
		},
		{
			"name": "MK_40",
			"from": [7.4998, 2.29542, 7.73719],
			"to": [8.4998, 3.00915, 7.7676],
			"rotation": {"angle": 0, "axis": "y", "origin": [7.50781, 3.06416, 8.97619]},
			"faces": {
				"north": {"uv": [0, 0, 1, 2], "texture": "#0"},
				"east": {"uv": [0, 0, 1, 2], "texture": "#0"},
				"south": {"uv": [0, 0, 1, 2], "texture": "#0"},
				"west": {"uv": [0, 0, 1, 2], "texture": "#0"},
				"up": {"uv": [0, 0, 1, 2], "texture": "#0"},
				"down": {"uv": [0, 0, 1, 2], "texture": "#0"}
			}
		},
		{
			"name": "MK_41",
			"from": [7.4998, 2.82296, 10.01799],
			"to": [8.4998, 2.94708, 10.10922],
			"rotation": {"angle": 0, "axis": "y", "origin": [7.50781, 3.06416, 8.97619]},
			"faces": {
				"north": {"uv": [0, 0, 1, 2], "texture": "#0"},
				"east": {"uv": [0, 0, 1, 2], "texture": "#0"},
				"south": {"uv": [0, 0, 1, 2], "texture": "#0"},
				"west": {"uv": [0, 0, 1, 2], "texture": "#0"},
				"up": {"uv": [0, 0, 1, 2], "texture": "#0"},
				"down": {"uv": [0, 0, 1, 2], "texture": "#0"}
			}
		},
		{
			"name": "MK_42",
			"from": [7.4998, 2.29542, 7.70678],
			"to": [8.4998, 2.91605, 7.73719],
			"rotation": {"angle": 0, "axis": "y", "origin": [7.50781, 3.06416, 8.97619]},
			"faces": {
				"north": {"uv": [0, 0, 1, 2], "texture": "#0"},
				"east": {"uv": [0, 0, 1, 2], "texture": "#0"},
				"south": {"uv": [0, 0, 1, 2], "texture": "#0"},
				"west": {"uv": [0, 0, 1, 2], "texture": "#0"},
				"up": {"uv": [0, 0, 1, 2], "texture": "#0"},
				"down": {"uv": [0, 0, 1, 2], "texture": "#0"}
			}
		},
		{
			"name": "MK_43",
			"from": [7.4998, 2.32646, 7.67637],
			"to": [8.4998, 2.82296, 7.70678],
			"rotation": {"angle": 0, "axis": "y", "origin": [7.50781, 3.06416, 8.97619]},
			"faces": {
				"north": {"uv": [0, 0, 1, 2], "texture": "#0"},
				"east": {"uv": [0, 0, 1, 2], "texture": "#0"},
				"south": {"uv": [0, 0, 1, 2], "texture": "#0"},
				"west": {"uv": [0, 0, 1, 2], "texture": "#0"},
				"up": {"uv": [0, 0, 1, 2], "texture": "#0"},
				"down": {"uv": [0, 0, 1, 2], "texture": "#0"}
			}
		},
		{
			"name": "MK_44",
			"from": [7.4998, 2.72986, 10.01799],
			"to": [8.4998, 2.82296, 10.07881],
			"rotation": {"angle": 0, "axis": "y", "origin": [7.50781, 3.06416, 8.97619]},
			"faces": {
				"north": {"uv": [0, 0, 1, 2], "texture": "#0"},
				"east": {"uv": [0, 0, 1, 2], "texture": "#0"},
				"south": {"uv": [0, 0, 1, 2], "texture": "#0"},
				"west": {"uv": [0, 0, 1, 2], "texture": "#0"},
				"up": {"uv": [0, 0, 1, 2], "texture": "#0"},
				"down": {"uv": [0, 0, 1, 2], "texture": "#0"}
			}
		},
		{
			"name": "MK_45",
			"from": [7.4998, 2.32646, 7.64595],
			"to": [8.4998, 2.72986, 7.67637],
			"rotation": {"angle": 0, "axis": "y", "origin": [7.50781, 3.06416, 8.97619]},
			"faces": {
				"north": {"uv": [0, 0, 1, 2], "texture": "#0"},
				"east": {"uv": [0, 0, 1, 2], "texture": "#0"},
				"south": {"uv": [0, 0, 1, 2], "texture": "#0"},
				"west": {"uv": [0, 0, 1, 2], "texture": "#0"},
				"up": {"uv": [0, 0, 1, 2], "texture": "#0"},
				"down": {"uv": [0, 0, 1, 2], "texture": "#0"}
			}
		},
		{
			"name": "MK_46",
			"from": [7.4998, 2.60574, 10.01799],
			"to": [8.4998, 2.72986, 10.0484],
			"rotation": {"angle": 0, "axis": "y", "origin": [7.50781, 3.06416, 8.97619]},
			"faces": {
				"north": {"uv": [0, 0, 1, 2], "texture": "#0"},
				"east": {"uv": [0, 0, 1, 2], "texture": "#0"},
				"south": {"uv": [0, 0, 1, 2], "texture": "#0"},
				"west": {"uv": [0, 0, 1, 2], "texture": "#0"},
				"up": {"uv": [0, 0, 1, 2], "texture": "#0"},
				"down": {"uv": [0, 0, 1, 2], "texture": "#0"}
			}
		},
		{
			"name": "MK_47",
			"from": [7.4998, 2.32646, 7.61554],
			"to": [8.4998, 2.63677, 7.64595],
			"rotation": {"angle": 0, "axis": "y", "origin": [7.50781, 3.06416, 8.97619]},
			"faces": {
				"north": {"uv": [0, 0, 1, 2], "texture": "#0"},
				"east": {"uv": [0, 0, 1, 2], "texture": "#0"},
				"south": {"uv": [0, 0, 1, 2], "texture": "#0"},
				"west": {"uv": [0, 0, 1, 2], "texture": "#0"},
				"up": {"uv": [0, 0, 1, 2], "texture": "#0"},
				"down": {"uv": [0, 0, 1, 2], "texture": "#0"}
			}
		},
		{
			"name": "MK_48",
			"from": [7.4998, 2.38852, 9.89635],
			"to": [8.4998, 2.48161, 9.98758],
			"rotation": {"angle": 0, "axis": "y", "origin": [7.50781, 3.06416, 8.97619]},
			"faces": {
				"north": {"uv": [0, 0, 1, 2], "texture": "#0"},
				"east": {"uv": [0, 0, 1, 2], "texture": "#0"},
				"south": {"uv": [0, 0, 1, 2], "texture": "#0"},
				"west": {"uv": [0, 0, 1, 2], "texture": "#0"},
				"up": {"uv": [0, 0, 1, 2], "texture": "#0"},
				"down": {"uv": [0, 0, 1, 2], "texture": "#0"}
			}
		},
		{
			"name": "MK_49",
			"from": [7.4998, 2.29542, 9.89635],
			"to": [8.4998, 2.38852, 9.95717],
			"rotation": {"angle": 0, "axis": "y", "origin": [7.50781, 3.06416, 8.97619]},
			"faces": {
				"north": {"uv": [0, 0, 1, 2], "texture": "#0"},
				"east": {"uv": [0, 0, 1, 2], "texture": "#0"},
				"south": {"uv": [0, 0, 1, 2], "texture": "#0"},
				"west": {"uv": [0, 0, 1, 2], "texture": "#0"},
				"up": {"uv": [0, 0, 1, 2], "texture": "#0"},
				"down": {"uv": [0, 0, 1, 2], "texture": "#0"}
			}
		},
		{
			"name": "MK_50",
			"from": [7.4998, 2.1713, 9.89635],
			"to": [8.4998, 2.29542, 9.92676],
			"rotation": {"angle": 0, "axis": "y", "origin": [7.50781, 3.06416, 8.97619]},
			"faces": {
				"north": {"uv": [0, 0, 1, 2], "texture": "#0"},
				"east": {"uv": [0, 0, 1, 2], "texture": "#0"},
				"south": {"uv": [0, 0, 1, 2], "texture": "#0"},
				"west": {"uv": [0, 0, 1, 2], "texture": "#0"},
				"up": {"uv": [0, 0, 1, 2], "texture": "#0"},
				"down": {"uv": [0, 0, 1, 2], "texture": "#0"}
			}
		},
		{
			"name": "MK_51",
			"from": [7.4998, 2.04717, 8.37581],
			"to": [8.4998, 2.07821, 8.49746],
			"rotation": {"angle": 0, "axis": "y", "origin": [7.50781, 3.06416, 8.97619]},
			"faces": {
				"north": {"uv": [0, 0, 1, 2], "texture": "#0"},
				"east": {"uv": [0, 0, 1, 2], "texture": "#0"},
				"south": {"uv": [0, 0, 1, 2], "texture": "#0"},
				"west": {"uv": [0, 0, 1, 2], "texture": "#0"},
				"up": {"uv": [0, 0, 1, 2], "texture": "#0"},
				"down": {"uv": [0, 0, 1, 2], "texture": "#0"}
			}
		},
		{
			"name": "MK_52",
			"from": [7.4998, 1.95408, 9.80512],
			"to": [8.4998, 2.07821, 9.86594],
			"rotation": {"angle": 0, "axis": "y", "origin": [7.50781, 3.06416, 8.97619]},
			"faces": {
				"north": {"uv": [0, 0, 1, 2], "texture": "#0"},
				"east": {"uv": [0, 0, 1, 2], "texture": "#0"},
				"south": {"uv": [0, 0, 1, 2], "texture": "#0"},
				"west": {"uv": [0, 0, 1, 2], "texture": "#0"},
				"up": {"uv": [0, 0, 1, 2], "texture": "#0"},
				"down": {"uv": [0, 0, 1, 2], "texture": "#0"}
			}
		},
		{
			"name": "MK_53",
			"from": [7.4998, 2.01614, 8.46704],
			"to": [8.4998, 2.04717, 8.49746],
			"rotation": {"angle": 0, "axis": "y", "origin": [7.50781, 3.06416, 8.97619]},
			"faces": {
				"north": {"uv": [0, 0, 1, 2], "texture": "#0"},
				"east": {"uv": [0, 0, 1, 2], "texture": "#0"},
				"south": {"uv": [0, 0, 1, 2], "texture": "#0"},
				"west": {"uv": [0, 0, 1, 2], "texture": "#0"},
				"up": {"uv": [0, 0, 1, 2], "texture": "#0"},
				"down": {"uv": [0, 0, 1, 2], "texture": "#0"}
			}
		},
		{
			"name": "MK_54",
			"from": [7.4998, 1.98511, 8.52787],
			"to": [8.4998, 2.01614, 8.64951],
			"rotation": {"angle": 0, "axis": "y", "origin": [7.50781, 3.06416, 8.97619]},
			"faces": {
				"north": {"uv": [0, 0, 1, 2], "texture": "#0"},
				"east": {"uv": [0, 0, 1, 2], "texture": "#0"},
				"south": {"uv": [0, 0, 1, 2], "texture": "#0"},
				"west": {"uv": [0, 0, 1, 2], "texture": "#0"},
				"up": {"uv": [0, 0, 1, 2], "texture": "#0"},
				"down": {"uv": [0, 0, 1, 2], "texture": "#0"}
			}
		},
		{
			"name": "MK_55",
			"from": [7.4998, 1.95408, 8.6191],
			"to": [8.4998, 1.98511, 8.64951],
			"rotation": {"angle": 0, "axis": "y", "origin": [7.50781, 3.06416, 8.97619]},
			"faces": {
				"north": {"uv": [0, 0, 1, 2], "texture": "#0"},
				"east": {"uv": [0, 0, 1, 2], "texture": "#0"},
				"south": {"uv": [0, 0, 1, 2], "texture": "#0"},
				"west": {"uv": [0, 0, 1, 2], "texture": "#0"},
				"up": {"uv": [0, 0, 1, 2], "texture": "#0"},
				"down": {"uv": [0, 0, 1, 2], "texture": "#0"}
			}
		},
		{
			"name": "MK_56",
			"from": [7.4998, 1.92305, 8.67992],
			"to": [8.4998, 1.95408, 8.86238],
			"rotation": {"angle": 0, "axis": "y", "origin": [7.50781, 3.06416, 8.97619]},
			"faces": {
				"north": {"uv": [0, 0, 1, 2], "texture": "#0"},
				"east": {"uv": [0, 0, 1, 2], "texture": "#0"},
				"south": {"uv": [0, 0, 1, 2], "texture": "#0"},
				"west": {"uv": [0, 0, 1, 2], "texture": "#0"},
				"up": {"uv": [0, 0, 1, 2], "texture": "#0"},
				"down": {"uv": [0, 0, 1, 2], "texture": "#0"}
			}
		},
		{
			"name": "MK_57",
			"from": [7.4998, 1.86099, 9.80512],
			"to": [8.4998, 1.95408, 9.83553],
			"rotation": {"angle": 0, "axis": "y", "origin": [7.50781, 3.06416, 8.97619]},
			"faces": {
				"north": {"uv": [0, 0, 1, 2], "texture": "#0"},
				"east": {"uv": [0, 0, 1, 2], "texture": "#0"},
				"south": {"uv": [0, 0, 1, 2], "texture": "#0"},
				"west": {"uv": [0, 0, 1, 2], "texture": "#0"},
				"up": {"uv": [0, 0, 1, 2], "texture": "#0"},
				"down": {"uv": [0, 0, 1, 2], "texture": "#0"}
			}
		},
		{
			"name": "MK_58",
			"from": [7.4998, 1.89202, 8.77115],
			"to": [8.4998, 1.92305, 8.86238],
			"rotation": {"angle": 0, "axis": "y", "origin": [7.50781, 3.06416, 8.97619]},
			"faces": {
				"north": {"uv": [0, 0, 1, 2], "texture": "#0"},
				"east": {"uv": [0, 0, 1, 2], "texture": "#0"},
				"south": {"uv": [0, 0, 1, 2], "texture": "#0"},
				"west": {"uv": [0, 0, 1, 2], "texture": "#0"},
				"up": {"uv": [0, 0, 1, 2], "texture": "#0"},
				"down": {"uv": [0, 0, 1, 2], "texture": "#0"}
			}
		},
		{
			"name": "MK_59",
			"from": [7.4998, 1.82995, 8.95362],
			"to": [8.4998, 1.86099, 9.04485],
			"rotation": {"angle": 0, "axis": "y", "origin": [7.50781, 3.06416, 8.97619]},
			"faces": {
				"north": {"uv": [0, 0, 1, 2], "texture": "#0"},
				"east": {"uv": [0, 0, 1, 2], "texture": "#0"},
				"south": {"uv": [0, 0, 1, 2], "texture": "#0"},
				"west": {"uv": [0, 0, 1, 2], "texture": "#0"},
				"up": {"uv": [0, 0, 1, 2], "texture": "#0"},
				"down": {"uv": [0, 0, 1, 2], "texture": "#0"}
			}
		},
		{
			"name": "MK_60",
			"from": [7.4998, 1.76789, 9.13608],
			"to": [8.4998, 1.79892, 9.16649],
			"rotation": {"angle": 0, "axis": "y", "origin": [7.50781, 3.06416, 8.97619]},
			"faces": {
				"north": {"uv": [0, 0, 1, 2], "texture": "#0"},
				"east": {"uv": [0, 0, 1, 2], "texture": "#0"},
				"south": {"uv": [0, 0, 1, 2], "texture": "#0"},
				"west": {"uv": [0, 0, 1, 2], "texture": "#0"},
				"up": {"uv": [0, 0, 1, 2], "texture": "#0"},
				"down": {"uv": [0, 0, 1, 2], "texture": "#0"}
			}
		},
		{
			"name": "MK_61",
			"from": [7.4998, 1.73686, 9.22731],
			"to": [8.4998, 1.76789, 9.59224],
			"rotation": {"angle": 0, "axis": "y", "origin": [7.50781, 3.06416, 8.97619]},
			"faces": {
				"north": {"uv": [0, 0, 1, 2], "texture": "#0"},
				"east": {"uv": [0, 0, 1, 2], "texture": "#0"},
				"south": {"uv": [0, 0, 1, 2], "texture": "#0"},
				"west": {"uv": [0, 0, 1, 2], "texture": "#0"},
				"up": {"uv": [0, 0, 1, 2], "texture": "#0"},
				"down": {"uv": [0, 0, 1, 2], "texture": "#0"}
			}
		},
		{
			"name": "MK_62",
			"from": [7.4998, 1.70583, 9.28813],
			"to": [8.4998, 1.73686, 9.59224],
			"rotation": {"angle": 0, "axis": "y", "origin": [7.50781, 3.06416, 8.97619]},
			"faces": {
				"north": {"uv": [0, 0, 1, 2], "texture": "#0"},
				"east": {"uv": [0, 0, 1, 2], "texture": "#0"},
				"south": {"uv": [0, 0, 1, 2], "texture": "#0"},
				"west": {"uv": [0, 0, 1, 2], "texture": "#0"},
				"up": {"uv": [0, 0, 1, 2], "texture": "#0"},
				"down": {"uv": [0, 0, 1, 2], "texture": "#0"}
			}
		},
		{
			"name": "MK_63",
			"from": [7.4998, 1.6748, 9.74429],
			"to": [8.4998, 1.73686, 9.77471],
			"rotation": {"angle": 0, "axis": "y", "origin": [7.50781, 3.06416, 8.97619]},
			"faces": {
				"north": {"uv": [0, 0, 1, 2], "texture": "#0"},
				"east": {"uv": [0, 0, 1, 2], "texture": "#0"},
				"south": {"uv": [0, 0, 1, 2], "texture": "#0"},
				"west": {"uv": [0, 0, 1, 2], "texture": "#0"},
				"up": {"uv": [0, 0, 1, 2], "texture": "#0"},
				"down": {"uv": [0, 0, 1, 2], "texture": "#0"}
			}
		},
		{
			"name": "MK_64",
			"from": [7.4998, 1.6748, 9.37937],
			"to": [8.4998, 1.70583, 9.59224],
			"rotation": {"angle": 0, "axis": "y", "origin": [7.50781, 3.06416, 8.97619]},
			"faces": {
				"north": {"uv": [0, 0, 1, 2], "texture": "#0"},
				"east": {"uv": [0, 0, 1, 2], "texture": "#0"},
				"south": {"uv": [0, 0, 1, 2], "texture": "#0"},
				"west": {"uv": [0, 0, 1, 2], "texture": "#0"},
				"up": {"uv": [0, 0, 1, 2], "texture": "#0"},
				"down": {"uv": [0, 0, 1, 2], "texture": "#0"}
			}
		},
		{
			"name": "MK_65",
			"from": [7.4998, 1.64377, 9.4706],
			"to": [8.4998, 1.6748, 9.59224],
			"rotation": {"angle": 0, "axis": "y", "origin": [7.50781, 3.06416, 8.97619]},
			"faces": {
				"north": {"uv": [0, 0, 1, 2], "texture": "#0"},
				"east": {"uv": [0, 0, 1, 2], "texture": "#0"},
				"south": {"uv": [0, 0, 1, 2], "texture": "#0"},
				"west": {"uv": [0, 0, 1, 2], "texture": "#0"},
				"up": {"uv": [0, 0, 1, 2], "texture": "#0"},
				"down": {"uv": [0, 0, 1, 2], "texture": "#0"}
			}
		}
	],
	"groups": [
		{
			"name": "mag",
			"origin": [8, 8, 8],
			"children": [0, 1, 2, 3, 4, 5, 6, 7, 8, 9, 10, 11, 12, 13, 14, 15, 16, 17, 18, 19, 20, 21, 22, 23, 24, 25, 26, 27, 28, 29, 30, 31, 32, 33, 34, 35, 36, 37, 38, 39, 40, 41, 42, 43, 44, 45, 46, 47, 48, 49, 50, 51, 52, 53, 54, 55, 56, 57, 58, 59, 60, 61, 62, 63, 64, 65, 66]
		}
	]
}