{
	"credit": "Made with Blockbench",
	"textures": {
		"0": "ava:item/gun_textures/palette_black",
		"particle": "ava:item/gun_textures/palette_black"
	},
	"elements": [
		{
			"from": [7.6, 3.63529, 7.59684],
			"to": [8.4, 7.08529, 8.39684],
			"rotation": {"angle": 0, "axis": "y", "origin": [0.5, 11.08529, 15.09684]},
			"faces": {
				"north": {"uv": [4, 0, 6, 2], "texture": "#0"},
				"east": {"uv": [4, 0, 6, 2], "texture": "#0"},
				"south": {"uv": [4, 0, 6, 2], "texture": "#0"},
				"west": {"uv": [4, 0, 6, 2], "texture": "#0"},
				"up": {"uv": [4, 0, 6, 2], "texture": "#0"},
				"down": {"uv": [4, 0, 6, 2], "texture": "#0"}
			}
		},
		{
			"from": [7.25, 7.08529, 6.99684],
			"to": [8.75, 7.23529, 8.99684],
			"rotation": {"angle": 0, "axis": "y", "origin": [0.25, 14.53529, 14.49684]},
			"faces": {
				"north": {"uv": [0, 0, 2, 2], "texture": "#0"},
				"east": {"uv": [0, 0, 2, 2], "texture": "#0"},
				"south": {"uv": [0, 0, 2, 2], "texture": "#0"},
				"west": {"uv": [0, 0, 2, 2], "texture": "#0"},
				"up": {"uv": [0, 0, 2, 2], "texture": "#0"},
				"down": {"uv": [0, 0, 2, 2], "texture": "#0"}
			}
		},
		{
			"from": [7.625, 7.23529, 7.24684],
			"to": [8.375, 7.38529, 8.74684],
			"rotation": {"angle": 0, "axis": "y", "origin": [8.2, 7.31029, 7.74684]},
			"faces": {
				"north": {"uv": [4, 0, 6, 2], "texture": "#0"},
				"east": {"uv": [4, 0, 6, 2], "texture": "#0"},
				"south": {"uv": [4, 0, 6, 2], "texture": "#0"},
				"west": {"uv": [4, 0, 6, 2], "texture": "#0"},
				"up": {"uv": [4, 0, 6, 2], "texture": "#0"},
				"down": {"uv": [4, 0, 6, 2], "texture": "#0"}
			}
		},
		{
			"from": [7.65, 7.38529, 7.34684],
			"to": [8.35, 7.53529, 8.74684],
			"rotation": {"angle": 0, "axis": "y", "origin": [8.2, 7.46029, 7.74684]},
			"faces": {
				"north": {"uv": [4, 0, 6, 2], "texture": "#0"},
				"east": {"uv": [4, 0, 6, 2], "texture": "#0"},
				"south": {"uv": [4, 0, 6, 2], "texture": "#0"},
				"west": {"uv": [4, 0, 6, 2], "texture": "#0"},
				"up": {"uv": [4, 0, 6, 2], "texture": "#0"},
				"down": {"uv": [4, 0, 6, 2], "texture": "#0"}
			}
		},
		{
			"from": [7.675, 7.51029, 7.42184],
			"to": [8.325, 7.66029, 8.74684],
			"rotation": {"angle": 0, "axis": "y", "origin": [8.2, 7.58529, 7.74684]},
			"faces": {
				"north": {"uv": [4, 0, 6, 2], "texture": "#0"},
				"east": {"uv": [4, 0, 6, 2], "texture": "#0"},
				"south": {"uv": [4, 0, 6, 2], "texture": "#0"},
				"west": {"uv": [4, 0, 6, 2], "texture": "#0"},
				"up": {"uv": [4, 0, 6, 2], "texture": "#0"},
				"down": {"uv": [4, 0, 6, 2], "texture": "#0"}
			}
		},
		{
			"from": [7.7, 7.66029, 7.47184],
			"to": [8.3, 7.81029, 8.74684],
			"rotation": {"angle": 0, "axis": "y", "origin": [8.2, 7.73529, 7.74684]},
			"faces": {
				"north": {"uv": [4, 0, 6, 2], "texture": "#0"},
				"east": {"uv": [4, 0, 6, 2], "texture": "#0"},
				"south": {"uv": [4, 0, 6, 2], "texture": "#0"},
				"west": {"uv": [4, 0, 6, 2], "texture": "#0"},
				"up": {"uv": [4, 0, 6, 2], "texture": "#0"},
				"down": {"uv": [4, 0, 6, 2], "texture": "#0"}
			}
		},
		{
			"from": [7.725, 7.81029, 7.39684],
			"to": [8.275, 7.96029, 8.74684],
			"rotation": {"angle": 0, "axis": "y", "origin": [8.2, 7.88529, 7.74684]},
			"faces": {
				"north": {"uv": [4, 0, 6, 2], "texture": "#0"},
				"east": {"uv": [4, 0, 6, 2], "texture": "#0"},
				"south": {"uv": [4, 0, 6, 2], "texture": "#0"},
				"west": {"uv": [4, 0, 6, 2], "texture": "#0"},
				"up": {"uv": [4, 0, 6, 2], "texture": "#0"},
				"down": {"uv": [4, 0, 6, 2], "texture": "#0"}
			}
		},
		{
			"from": [7.75, 7.96029, 7.27184],
			"to": [8.25, 8.11029, 8.74684],
			"rotation": {"angle": 0, "axis": "y", "origin": [8.2, 8.03529, 7.74684]},
			"faces": {
				"north": {"uv": [4, 0, 6, 2], "texture": "#0"},
				"east": {"uv": [4, 0, 6, 2], "texture": "#0"},
				"south": {"uv": [4, 0, 6, 2], "texture": "#0"},
				"west": {"uv": [4, 0, 6, 2], "texture": "#0"},
				"up": {"uv": [4, 0, 6, 2], "texture": "#0"},
				"down": {"uv": [4, 0, 6, 2], "texture": "#0"}
			}
		},
		{
			"from": [7.875, 8.11029, 7.87184],
			"to": [8.125, 14.58529, 8.74684],
			"rotation": {"angle": 0, "axis": "y", "origin": [8.2, 8.18529, 7.74684]},
			"faces": {
				"north": {"uv": [2, 0, 4, 2], "texture": "#0"},
				"east": {"uv": [2, 0, 4, 2], "texture": "#0"},
				"south": {"uv": [2, 0, 4, 2], "texture": "#0"},
				"west": {"uv": [2, 0, 4, 2], "texture": "#0"},
				"up": {"uv": [2, 0, 4, 2], "texture": "#0"},
				"down": {"uv": [2, 0, 4, 2], "texture": "#0"}
			}
		},
		{
			"from": [7.875, 14.81029, 7.89684],
			"to": [8.125, 14.96029, 8.99684],
			"rotation": {"angle": -45, "axis": "x", "origin": [8, 14.72279, 8.33434]},
			"faces": {
				"north": {"uv": [2, 0, 4, 2], "texture": "#0"},
				"east": {"uv": [2, 0, 4, 2], "texture": "#0"},
				"south": {"uv": [2, 0, 4, 2], "texture": "#0"},
				"west": {"uv": [2, 0, 4, 2], "texture": "#0"},
				"up": {"uv": [2, 0, 4, 2], "texture": "#0"},
				"down": {"uv": [2, 0, 4, 2], "texture": "#0"}
			}
		},
		{
			"from": [7.875, 14.58529, 8.57184],
			"to": [8.125, 15.28529, 8.74684],
			"rotation": {"angle": 0, "axis": "x", "origin": [8, 14.66029, 8.69684]},
			"faces": {
				"north": {"uv": [2, 0, 4, 2], "texture": "#0"},
				"east": {"uv": [2, 0, 4, 2], "texture": "#0"},
				"south": {"uv": [2, 0, 4, 2], "texture": "#0"},
				"west": {"uv": [2, 0, 4, 2], "texture": "#0"},
				"up": {"uv": [2, 0, 4, 2], "texture": "#0"},
				"down": {"uv": [2, 0, 4, 2], "texture": "#0"}
			}
		},
		{
			"from": [7.975, 15.28529, 8.57184],
			"to": [8.025, 15.56029, 8.74684],
			"rotation": {"angle": 0, "axis": "x", "origin": [8, 15.36029, 8.69684]},
			"faces": {
				"north": {"uv": [6, 0, 8, 0.125], "texture": "#0"},
				"east": {"uv": [6, 0, 8, 0.125], "texture": "#0"},
				"south": {"uv": [6, 0, 8, 0.125], "texture": "#0"},
				"west": {"uv": [6, 0, 8, 0.125], "texture": "#0"},
				"up": {"uv": [6, 0, 8, 0.125], "texture": "#0"},
				"down": {"uv": [6, 0, 8, 0.125], "texture": "#0"}
			}
		},
		{
			"from": [7.875, 14.58529, 8.37184],
			"to": [8.125, 15.08529, 8.57184],
			"rotation": {"angle": 0, "axis": "x", "origin": [8, 14.66029, 8.52184]},
			"faces": {
				"north": {"uv": [2, 0, 4, 2], "texture": "#0"},
				"east": {"uv": [2, 0, 4, 2], "texture": "#0"},
				"south": {"uv": [2, 0, 4, 2], "texture": "#0"},
				"west": {"uv": [2, 0, 4, 2], "texture": "#0"},
				"up": {"uv": [2, 0, 4, 2], "texture": "#0"},
				"down": {"uv": [2, 0, 4, 2], "texture": "#0"}
			}
		},
		{
			"from": [7.875, 14.58529, 8.17184],
			"to": [8.125, 14.88529, 8.37184],
			"rotation": {"angle": 0, "axis": "x", "origin": [8, 14.66029, 8.32184]},
			"faces": {
				"north": {"uv": [2, 0, 4, 2], "texture": "#0"},
				"east": {"uv": [2, 0, 4, 2], "texture": "#0"},
				"south": {"uv": [2, 0, 4, 2], "texture": "#0"},
				"west": {"uv": [2, 0, 4, 2], "texture": "#0"},
				"up": {"uv": [2, 0, 4, 2], "texture": "#0"},
				"down": {"uv": [2, 0, 4, 2], "texture": "#0"}
			}
		},
		{
			"from": [7.875, 14.58529, 8.07184],
			"to": [8.125, 14.68529, 8.17184],
			"rotation": {"angle": 0, "axis": "x", "origin": [8, 14.66029, 8.22184]},
			"faces": {
				"north": {"uv": [2, 0, 4, 2], "texture": "#0"},
				"east": {"uv": [2, 0, 4, 2], "texture": "#0"},
				"south": {"uv": [2, 0, 4, 2], "texture": "#0"},
				"west": {"uv": [2, 0, 4, 2], "texture": "#0"},
				"up": {"uv": [2, 0, 4, 2], "texture": "#0"},
				"down": {"uv": [2, 0, 4, 2], "texture": "#0"}
			}
		},
		{
			"from": [7.875, 8.11029, 7.27184],
			"to": [8.125, 8.28529, 7.87184],
			"rotation": {"angle": 0, "axis": "y", "origin": [8.2, 8.18529, 7.34684]},
			"faces": {
				"north": {"uv": [2, 0, 4, 2], "texture": "#0"},
				"east": {"uv": [2, 0, 4, 2], "texture": "#0"},
				"south": {"uv": [2, 0, 4, 2], "texture": "#0"},
				"west": {"uv": [2, 0, 4, 2], "texture": "#0"},
				"up": {"uv": [2, 0, 4, 2], "texture": "#0"},
				"down": {"uv": [2, 0, 4, 2], "texture": "#0"}
			}
		},
		{
			"from": [7.925, 8.28529, 7.42184],
			"to": [8.075, 13.83529, 7.87184],
			"rotation": {"angle": 0, "axis": "y", "origin": [8.2, 8.36029, 7.34684]},
			"faces": {
				"north": {"uv": [2, 0, 4, 2], "texture": "#0"},
				"east": {"uv": [2, 0, 4, 2], "texture": "#0"},
				"south": {"uv": [2, 0, 4, 2], "texture": "#0"},
				"west": {"uv": [2, 0, 4, 2], "texture": "#0"},
				"up": {"uv": [2, 0, 4, 2], "texture": "#0"},
				"down": {"uv": [2, 0, 4, 2], "texture": "#0"}
			}
		},
		{
			"from": [7.925, 13.73529, 7.54684],
			"to": [8.075, 14.31029, 7.84684],
			"rotation": {"angle": 22.5, "axis": "x", "origin": [8, 14.09779, 7.69684]},
			"faces": {
				"north": {"uv": [2, 0, 4, 2], "texture": "#0"},
				"east": {"uv": [2, 0, 4, 2], "texture": "#0"},
				"south": {"uv": [2, 0, 4, 2], "texture": "#0"},
				"west": {"uv": [2, 0, 4, 2], "texture": "#0"},
				"up": {"uv": [2, 0, 4, 2], "texture": "#0"},
				"down": {"uv": [2, 0, 4, 2], "texture": "#0"}
			}
		},
		{
			"from": [7.925, 14.166, 7.79314],
			"to": [8.075, 14.491, 7.91814],
			"rotation": {"angle": 45, "axis": "x", "origin": [8, 14.4535, 7.94314]},
			"faces": {
				"north": {"uv": [2, 0, 4, 2], "texture": "#0"},
				"east": {"uv": [2, 0, 4, 2], "texture": "#0"},
				"south": {"uv": [2, 0, 4, 2], "texture": "#0"},
				"west": {"uv": [2, 0, 4, 2], "texture": "#0"},
				"up": {"uv": [2, 0, 4, 2], "texture": "#0"},
				"down": {"uv": [2, 0, 4, 2], "texture": "#0"}
			}
		},
		{
			"from": [7.925, 13.83529, 7.74684],
			"to": [8.075, 14.43529, 7.87184],
			"rotation": {"angle": 0, "axis": "x", "origin": [7.675, 14.13529, 8.34684]},
			"faces": {
				"north": {"uv": [2, 0, 4, 2], "texture": "#0"},
				"east": {"uv": [2, 0, 4, 2], "texture": "#0"},
				"south": {"uv": [2, 0, 4, 2], "texture": "#0"},
				"west": {"uv": [2, 0, 4, 2], "texture": "#0"},
				"up": {"uv": [2, 0, 4, 2], "texture": "#0"},
				"down": {"uv": [2, 0, 4, 2], "texture": "#0"}
			}
		},
		{
			"from": [7.975, 8.28529, 7.22184],
			"to": [8.025, 13.83529, 7.42184],
			"rotation": {"angle": 0, "axis": "y", "origin": [8.2, 8.36029, 7.14684]},
			"faces": {
				"north": {"uv": [6, 0, 8, 0.125], "texture": "#0"},
				"east": {"uv": [6, 0, 8, 0.125], "texture": "#0"},
				"south": {"uv": [6, 0, 8, 0.125], "texture": "#0"},
				"west": {"uv": [6, 0, 8, 0.125], "texture": "#0"},
				"up": {"uv": [6, 0, 8, 0.125], "texture": "#0"},
				"down": {"uv": [6, 0, 8, 0.125], "texture": "#0"}
			}
		},
		{
			"from": [7.975, 13.68529, 7.69684],
			"to": [8.025, 14.38529, 7.89684],
			"rotation": {"angle": 22.5, "axis": "x", "origin": [8, 14.96029, 7.79684]},
			"faces": {
				"north": {"uv": [6, 0, 8, 0.125], "texture": "#0"},
				"east": {"uv": [6, 0, 8, 0.125], "texture": "#0"},
				"south": {"uv": [6, 0, 8, 0.125], "texture": "#0"},
				"west": {"uv": [6, 0, 8, 0.125], "texture": "#0"},
				"up": {"uv": [6, 0, 8, 0.125], "texture": "#0"},
				"down": {"uv": [6, 0, 8, 0.125], "texture": "#0"}
			}
		},
		{
			"from": [7.975, 14.28529, 7.71184],
			"to": [8.025, 15.83529, 7.91184],
			"rotation": {"angle": 45, "axis": "x", "origin": [8, 14.6492, 7.81075]},
			"faces": {
				"north": {"uv": [6, 0, 8, 0.125], "texture": "#0"},
				"east": {"uv": [6, 0, 8, 0.125], "texture": "#0"},
				"south": {"uv": [6, 0, 8, 0.125], "texture": "#0"},
				"west": {"uv": [6, 0, 8, 0.125], "texture": "#0"},
				"up": {"uv": [6, 0, 8, 0.125], "texture": "#0"},
				"down": {"uv": [6, 0, 8, 0.125], "texture": "#0"}
			}
		},
		{
			"name": "hexadecagon",
			"from": [8.03978, 3.63529, 7.59271],
			"to": [8.3978, 7.08529, 7.75097],
			"rotation": {"angle": 22.5, "axis": "y", "origin": [8, 4.13529, 7.67184]},
			"faces": {
				"north": {"uv": [4, 0, 6, 2], "texture": "#0"},
				"east": {"uv": [4, 0, 6, 2], "texture": "#0"},
				"south": {"uv": [4, 0, 6, 2], "texture": "#0"},
				"west": {"uv": [4, 0, 6, 2], "texture": "#0"},
				"up": {"uv": [4, 0, 6, 2], "texture": "#0"},
				"down": {"uv": [4, 0, 6, 2], "texture": "#0"}
			}
		},
		{
			"name": "hexadecagon",
			"from": [8.03978, 3.63529, 7.59271],
			"to": [8.3978, 7.08529, 7.75097],
			"rotation": {"angle": 45, "axis": "y", "origin": [8, 4.13529, 7.67184]},
			"faces": {
				"north": {"uv": [4, 0, 6, 2], "texture": "#0"},
				"east": {"uv": [4, 0, 6, 2], "texture": "#0"},
				"south": {"uv": [4, 0, 6, 2], "texture": "#0"},
				"west": {"uv": [4, 0, 6, 2], "texture": "#0"},
				"up": {"uv": [4, 0, 6, 2], "texture": "#0"},
				"down": {"uv": [4, 0, 6, 2], "texture": "#0"}
			}
		},
		{
			"name": "hexadecagon",
			"from": [7.6022, 3.63529, 7.59271],
			"to": [7.96022, 7.08529, 7.75097],
			"rotation": {"angle": -45, "axis": "y", "origin": [8, 4.13529, 7.67184]},
			"faces": {
				"north": {"uv": [4, 0, 6, 2], "texture": "#0"},
				"east": {"uv": [4, 0, 6, 2], "texture": "#0"},
				"south": {"uv": [4, 0, 6, 2], "texture": "#0"},
				"west": {"uv": [4, 0, 6, 2], "texture": "#0"},
				"up": {"uv": [4, 0, 6, 2], "texture": "#0"},
				"down": {"uv": [4, 0, 6, 2], "texture": "#0"}
			}
		},
		{
			"name": "hexadecagon",
			"from": [7.6022, 3.63529, 7.59271],
			"to": [7.96022, 7.08529, 7.75097],
			"rotation": {"angle": -22.5, "axis": "y", "origin": [8, 4.13529, 7.67184]},
			"faces": {
				"north": {"uv": [4, 0, 6, 2], "texture": "#0"},
				"east": {"uv": [4, 0, 6, 2], "texture": "#0"},
				"south": {"uv": [4, 0, 6, 2], "texture": "#0"},
				"west": {"uv": [4, 0, 6, 2], "texture": "#0"},
				"up": {"uv": [4, 0, 6, 2], "texture": "#0"},
				"down": {"uv": [4, 0, 6, 2], "texture": "#0"}
			}
		},
		{
			"name": "hexadecagon",
			"from": [7.92087, 3.63529, 7.27404],
			"to": [8.07913, 7.08529, 7.63206],
			"rotation": {"angle": -22.5, "axis": "y", "origin": [8, 4.13529, 7.67184]},
			"faces": {
				"north": {"uv": [4, 0, 6, 2], "texture": "#0"},
				"east": {"uv": [4, 0, 6, 2], "texture": "#0"},
				"south": {"uv": [4, 0, 6, 2], "texture": "#0"},
				"west": {"uv": [4, 0, 6, 2], "texture": "#0"},
				"up": {"uv": [4, 0, 6, 2], "texture": "#0"},
				"down": {"uv": [4, 0, 6, 2], "texture": "#0"}
			}
		},
		{
			"name": "hexadecagon",
			"from": [7.92087, 3.63529, 7.27404],
			"to": [8.07913, 7.08529, 7.63206],
			"rotation": {"angle": 0, "axis": "y", "origin": [8, 4.13529, 7.67184]},
			"faces": {
				"north": {"uv": [4, 0, 6, 2], "texture": "#0"},
				"east": {"uv": [4, 0, 6, 2], "texture": "#0"},
				"south": {"uv": [4, 0, 6, 2], "texture": "#0"},
				"west": {"uv": [4, 0, 6, 2], "texture": "#0"},
				"up": {"uv": [4, 0, 6, 2], "texture": "#0"},
				"down": {"uv": [4, 0, 6, 2], "texture": "#0"}
			}
		},
		{
			"name": "hexadecagon",
			"from": [7.92087, 3.63529, 7.27404],
			"to": [8.07913, 7.08529, 7.63206],
			"rotation": {"angle": 22.5, "axis": "y", "origin": [8, 4.13529, 7.67184]},
			"faces": {
				"north": {"uv": [4, 0, 6, 2], "texture": "#0"},
				"east": {"uv": [4, 0, 6, 2], "texture": "#0"},
				"south": {"uv": [4, 0, 6, 2], "texture": "#0"},
				"west": {"uv": [4, 0, 6, 2], "texture": "#0"},
				"up": {"uv": [4, 0, 6, 2], "texture": "#0"},
				"down": {"uv": [4, 0, 6, 2], "texture": "#0"}
			}
		},
		{
			"name": "hexadecagon",
			"from": [8.03978, 3.63529, 8.24271],
			"to": [8.3978, 7.08529, 8.40097],
			"rotation": {"angle": -22.5, "axis": "y", "origin": [8, 4.13529, 8.32184]},
			"faces": {
				"north": {"uv": [4, 0, 6, 2], "texture": "#0"},
				"east": {"uv": [4, 0, 6, 2], "texture": "#0"},
				"south": {"uv": [4, 0, 6, 2], "texture": "#0"},
				"west": {"uv": [4, 0, 6, 2], "texture": "#0"},
				"up": {"uv": [4, 0, 6, 2], "texture": "#0"},
				"down": {"uv": [4, 0, 6, 2], "texture": "#0"}
			}
		},
		{
			"name": "hexadecagon",
			"from": [8.03978, 3.63529, 8.24271],
			"to": [8.3978, 7.08529, 8.40097],
			"rotation": {"angle": -45, "axis": "y", "origin": [8, 4.13529, 8.32184]},
			"faces": {
				"north": {"uv": [4, 0, 6, 2], "texture": "#0"},
				"east": {"uv": [4, 0, 6, 2], "texture": "#0"},
				"south": {"uv": [4, 0, 6, 2], "texture": "#0"},
				"west": {"uv": [4, 0, 6, 2], "texture": "#0"},
				"up": {"uv": [4, 0, 6, 2], "texture": "#0"},
				"down": {"uv": [4, 0, 6, 2], "texture": "#0"}
			}
		},
		{
			"name": "hexadecagon",
			"from": [7.6022, 3.63529, 8.24271],
			"to": [7.96022, 7.08529, 8.40097],
			"rotation": {"angle": 45, "axis": "y", "origin": [8, 4.13529, 8.32184]},
			"faces": {
				"north": {"uv": [4, 0, 6, 2], "texture": "#0"},
				"east": {"uv": [4, 0, 6, 2], "texture": "#0"},
				"south": {"uv": [4, 0, 6, 2], "texture": "#0"},
				"west": {"uv": [4, 0, 6, 2], "texture": "#0"},
				"up": {"uv": [4, 0, 6, 2], "texture": "#0"},
				"down": {"uv": [4, 0, 6, 2], "texture": "#0"}
			}
		},
		{
			"name": "hexadecagon",
			"from": [7.6022, 3.63529, 8.24271],
			"to": [7.96022, 7.08529, 8.40097],
			"rotation": {"angle": 22.5, "axis": "y", "origin": [8, 4.13529, 8.32184]},
			"faces": {
				"north": {"uv": [4, 0, 6, 2], "texture": "#0"},
				"east": {"uv": [4, 0, 6, 2], "texture": "#0"},
				"south": {"uv": [4, 0, 6, 2], "texture": "#0"},
				"west": {"uv": [4, 0, 6, 2], "texture": "#0"},
				"up": {"uv": [4, 0, 6, 2], "texture": "#0"},
				"down": {"uv": [4, 0, 6, 2], "texture": "#0"}
			}
		},
		{
			"name": "hexadecagon",
			"from": [7.92087, 3.63529, 8.36162],
			"to": [8.07913, 7.08529, 8.71964],
			"rotation": {"angle": 22.5, "axis": "y", "origin": [8, 4.13529, 8.32184]},
			"faces": {
				"north": {"uv": [4, 0, 6, 2], "texture": "#0"},
				"east": {"uv": [4, 0, 6, 2], "texture": "#0"},
				"south": {"uv": [4, 0, 6, 2], "texture": "#0"},
				"west": {"uv": [4, 0, 6, 2], "texture": "#0"},
				"up": {"uv": [4, 0, 6, 2], "texture": "#0"},
				"down": {"uv": [4, 0, 6, 2], "texture": "#0"}
			}
		},
		{
			"name": "hexadecagon",
			"from": [7.92087, 3.63529, 8.36162],
			"to": [8.07913, 7.08529, 8.71964],
			"rotation": {"angle": 0, "axis": "y", "origin": [8, 4.13529, 8.32184]},
			"faces": {
				"north": {"uv": [4, 0, 6, 2], "texture": "#0"},
				"east": {"uv": [4, 0, 6, 2], "texture": "#0"},
				"south": {"uv": [4, 0, 6, 2], "texture": "#0"},
				"west": {"uv": [4, 0, 6, 2], "texture": "#0"},
				"up": {"uv": [4, 0, 6, 2], "texture": "#0"},
				"down": {"uv": [4, 0, 6, 2], "texture": "#0"}
			}
		},
		{
			"name": "hexadecagon",
			"from": [7.92087, 3.63529, 8.36162],
			"to": [8.07913, 7.08529, 8.71964],
			"rotation": {"angle": -22.5, "axis": "y", "origin": [8, 4.13529, 8.32184]},
			"faces": {
				"north": {"uv": [4, 0, 6, 2], "texture": "#0"},
				"east": {"uv": [4, 0, 6, 2], "texture": "#0"},
				"south": {"uv": [4, 0, 6, 2], "texture": "#0"},
				"west": {"uv": [4, 0, 6, 2], "texture": "#0"},
				"up": {"uv": [4, 0, 6, 2], "texture": "#0"},
				"down": {"uv": [4, 0, 6, 2], "texture": "#0"}
			}
		},
		{
			"name": "hexadecagon",
			"from": [8.04752, 3.81577, 7.59684],
			"to": [8.4752, 4.00481, 8.39684],
			"rotation": {"angle": -45, "axis": "z", "origin": [8, 3.91029, 7.94684]},
			"faces": {
				"north": {"uv": [4, 0, 6, 2], "rotation": 270, "texture": "#0"},
				"east": {"uv": [4, 0, 6, 2], "rotation": 270, "texture": "#0"},
				"south": {"uv": [4, 0, 6, 2], "rotation": 270, "texture": "#0"},
				"west": {"uv": [4, 0, 6, 2], "rotation": 270, "texture": "#0"},
				"up": {"uv": [4, 0, 6, 2], "rotation": 270, "texture": "#0"},
				"down": {"uv": [4, 0, 6, 2], "rotation": 270, "texture": "#0"}
			}
		},
		{
			"name": "hexadecagon",
			"from": [7.5248, 3.81577, 7.59684],
			"to": [7.95248, 4.00481, 8.39684],
			"rotation": {"angle": 45, "axis": "z", "origin": [8, 3.91029, 7.94684]},
			"faces": {
				"north": {"uv": [4, 0, 6, 2], "rotation": 270, "texture": "#0"},
				"east": {"uv": [4, 0, 6, 2], "rotation": 270, "texture": "#0"},
				"south": {"uv": [4, 0, 6, 2], "rotation": 270, "texture": "#0"},
				"west": {"uv": [4, 0, 6, 2], "rotation": 270, "texture": "#0"},
				"up": {"uv": [4, 0, 6, 2], "rotation": 270, "texture": "#0"},
				"down": {"uv": [4, 0, 6, 2], "rotation": 270, "texture": "#0"}
			}
		},
		{
			"name": "hexadecagon",
			"from": [7.90548, 3.43509, 7.59684],
			"to": [8.09452, 3.86277, 8.39684],
			"rotation": {"angle": -22.5, "axis": "z", "origin": [8, 3.91029, 7.94684]},
			"faces": {
				"north": {"uv": [4, 0, 6, 2], "rotation": 270, "texture": "#0"},
				"east": {"uv": [4, 0, 6, 2], "rotation": 270, "texture": "#0"},
				"south": {"uv": [4, 0, 6, 2], "rotation": 270, "texture": "#0"},
				"west": {"uv": [4, 0, 6, 2], "rotation": 270, "texture": "#0"},
				"up": {"uv": [4, 0, 6, 2], "rotation": 270, "texture": "#0"},
				"down": {"uv": [4, 0, 6, 2], "rotation": 270, "texture": "#0"}
			}
		},
		{
			"name": "hexadecagon",
			"from": [7.90548, 3.43509, 7.59684],
			"to": [8.09452, 3.86277, 8.39684],
			"rotation": {"angle": 0, "axis": "x", "origin": [8, 3.91029, 7.94684]},
			"faces": {
				"north": {"uv": [4, 0, 6, 2], "rotation": 270, "texture": "#0"},
				"east": {"uv": [4, 0, 6, 2], "rotation": 270, "texture": "#0"},
				"south": {"uv": [4, 0, 6, 2], "rotation": 270, "texture": "#0"},
				"west": {"uv": [4, 0, 6, 2], "rotation": 270, "texture": "#0"},
				"up": {"uv": [4, 0, 6, 2], "rotation": 270, "texture": "#0"},
				"down": {"uv": [4, 0, 6, 2], "rotation": 270, "texture": "#0"}
			}
		},
		{
			"name": "hexadecagon",
			"from": [7.90548, 3.43509, 7.59684],
			"to": [8.09452, 3.86277, 8.39684],
			"rotation": {"angle": 22.5, "axis": "z", "origin": [8, 3.91029, 7.94684]},
			"faces": {
				"north": {"uv": [4, 0, 6, 2], "rotation": 270, "texture": "#0"},
				"east": {"uv": [4, 0, 6, 2], "rotation": 270, "texture": "#0"},
				"south": {"uv": [4, 0, 6, 2], "rotation": 270, "texture": "#0"},
				"west": {"uv": [4, 0, 6, 2], "rotation": 270, "texture": "#0"},
				"up": {"uv": [4, 0, 6, 2], "rotation": 270, "texture": "#0"},
				"down": {"uv": [4, 0, 6, 2], "rotation": 270, "texture": "#0"}
			}
		},
		{
			"name": "hexadecagon",
			"from": [8.074, 7.08529, 6.99964],
			"to": [8.74, 7.23529, 7.29404],
			"rotation": {"angle": 22.5, "axis": "y", "origin": [8, 7.58529, 7.14684]},
			"faces": {
				"north": {"uv": [0, 0, 2, 2], "texture": "#0"},
				"east": {"uv": [0, 0, 2, 2], "texture": "#0"},
				"south": {"uv": [0, 0, 2, 2], "texture": "#0"},
				"west": {"uv": [0, 0, 2, 2], "texture": "#0"},
				"up": {"uv": [0, 0, 2, 2], "texture": "#0"},
				"down": {"uv": [0, 0, 2, 2], "texture": "#0"}
			}
		},
		{
			"name": "hexadecagon",
			"from": [8.074, 7.08529, 6.99964],
			"to": [8.74, 7.23529, 7.29404],
			"rotation": {"angle": 45, "axis": "y", "origin": [8, 7.58529, 7.14684]},
			"faces": {
				"north": {"uv": [0, 0, 2, 2], "texture": "#0"},
				"east": {"uv": [0, 0, 2, 2], "texture": "#0"},
				"south": {"uv": [0, 0, 2, 2], "texture": "#0"},
				"west": {"uv": [0, 0, 2, 2], "texture": "#0"},
				"up": {"uv": [0, 0, 2, 2], "texture": "#0"},
				"down": {"uv": [0, 0, 2, 2], "texture": "#0"}
			}
		},
		{
			"name": "hexadecagon",
			"from": [7.26, 7.08529, 6.99964],
			"to": [7.926, 7.23529, 7.29404],
			"rotation": {"angle": -45, "axis": "y", "origin": [8, 7.58529, 7.14684]},
			"faces": {
				"north": {"uv": [0, 0, 2, 2], "texture": "#0"},
				"east": {"uv": [0, 0, 2, 2], "texture": "#0"},
				"south": {"uv": [0, 0, 2, 2], "texture": "#0"},
				"west": {"uv": [0, 0, 2, 2], "texture": "#0"},
				"up": {"uv": [0, 0, 2, 2], "texture": "#0"},
				"down": {"uv": [0, 0, 2, 2], "texture": "#0"}
			}
		},
		{
			"name": "hexadecagon",
			"from": [7.26, 7.08529, 6.99964],
			"to": [7.926, 7.23529, 7.29404],
			"rotation": {"angle": -22.5, "axis": "y", "origin": [8, 7.58529, 7.14684]},
			"faces": {
				"north": {"uv": [0, 0, 2, 2], "texture": "#0"},
				"east": {"uv": [0, 0, 2, 2], "texture": "#0"},
				"south": {"uv": [0, 0, 2, 2], "texture": "#0"},
				"west": {"uv": [0, 0, 2, 2], "texture": "#0"},
				"up": {"uv": [0, 0, 2, 2], "texture": "#0"},
				"down": {"uv": [0, 0, 2, 2], "texture": "#0"}
			}
		},
		{
			"name": "hexadecagon",
			"from": [7.8528, 7.08529, 6.40684],
			"to": [8.1472, 7.23529, 7.07284],
			"rotation": {"angle": -22.5, "axis": "y", "origin": [8, 7.58529, 7.14684]},
			"faces": {
				"north": {"uv": [0, 0, 2, 2], "texture": "#0"},
				"east": {"uv": [0, 0, 2, 2], "texture": "#0"},
				"south": {"uv": [0, 0, 2, 2], "texture": "#0"},
				"west": {"uv": [0, 0, 2, 2], "texture": "#0"},
				"up": {"uv": [0, 0, 2, 2], "texture": "#0"},
				"down": {"uv": [0, 0, 2, 2], "texture": "#0"}
			}
		},
		{
			"name": "hexadecagon",
			"from": [7.8528, 7.08529, 6.40684],
			"to": [8.1472, 7.23529, 7.07284],
			"rotation": {"angle": 0, "axis": "y", "origin": [8, 7.58529, 7.14684]},
			"faces": {
				"north": {"uv": [0, 0, 2, 2], "texture": "#0"},
				"east": {"uv": [0, 0, 2, 2], "texture": "#0"},
				"south": {"uv": [0, 0, 2, 2], "texture": "#0"},
				"west": {"uv": [0, 0, 2, 2], "texture": "#0"},
				"up": {"uv": [0, 0, 2, 2], "texture": "#0"},
				"down": {"uv": [0, 0, 2, 2], "texture": "#0"}
			}
		},
		{
			"name": "hexadecagon",
			"from": [7.8528, 7.08529, 6.40684],
			"to": [8.1472, 7.23529, 7.07284],
			"rotation": {"angle": 22.5, "axis": "y", "origin": [8, 7.58529, 7.14684]},
			"faces": {
				"north": {"uv": [0, 0, 2, 2], "texture": "#0"},
				"east": {"uv": [0, 0, 2, 2], "texture": "#0"},
				"south": {"uv": [0, 0, 2, 2], "texture": "#0"},
				"west": {"uv": [0, 0, 2, 2], "texture": "#0"},
				"up": {"uv": [0, 0, 2, 2], "texture": "#0"},
				"down": {"uv": [0, 0, 2, 2], "texture": "#0"}
			}
		},
		{
			"name": "hexadecagon",
			"from": [7.26, 7.08529, 8.69964],
			"to": [7.926, 7.23529, 8.99404],
			"rotation": {"angle": 22.5, "axis": "y", "origin": [8, 7.58529, 8.84684]},
			"faces": {
				"north": {"uv": [0, 0, 2, 2], "texture": "#0"},
				"east": {"uv": [0, 0, 2, 2], "texture": "#0"},
				"south": {"uv": [0, 0, 2, 2], "texture": "#0"},
				"west": {"uv": [0, 0, 2, 2], "texture": "#0"},
				"up": {"uv": [0, 0, 2, 2], "texture": "#0"},
				"down": {"uv": [0, 0, 2, 2], "texture": "#0"}
			}
		},
		{
			"name": "hexadecagon",
			"from": [7.26, 7.08529, 8.69964],
			"to": [7.926, 7.23529, 8.99404],
			"rotation": {"angle": 45, "axis": "y", "origin": [8, 7.58529, 8.84684]},
			"faces": {
				"north": {"uv": [0, 0, 2, 2], "texture": "#0"},
				"east": {"uv": [0, 0, 2, 2], "texture": "#0"},
				"south": {"uv": [0, 0, 2, 2], "texture": "#0"},
				"west": {"uv": [0, 0, 2, 2], "texture": "#0"},
				"up": {"uv": [0, 0, 2, 2], "texture": "#0"},
				"down": {"uv": [0, 0, 2, 2], "texture": "#0"}
			}
		},
		{
			"name": "hexadecagon",
			"from": [8.074, 7.08529, 8.69964],
			"to": [8.74, 7.23529, 8.99404],
			"rotation": {"angle": -45, "axis": "y", "origin": [8, 7.58529, 8.84684]},
			"faces": {
				"north": {"uv": [0, 0, 2, 2], "texture": "#0"},
				"east": {"uv": [0, 0, 2, 2], "texture": "#0"},
				"south": {"uv": [0, 0, 2, 2], "texture": "#0"},
				"west": {"uv": [0, 0, 2, 2], "texture": "#0"},
				"up": {"uv": [0, 0, 2, 2], "texture": "#0"},
				"down": {"uv": [0, 0, 2, 2], "texture": "#0"}
			}
		},
		{
			"name": "hexadecagon",
			"from": [8.074, 7.08529, 8.69964],
			"to": [8.74, 7.23529, 8.99404],
			"rotation": {"angle": -22.5, "axis": "y", "origin": [8, 7.58529, 8.84684]},
			"faces": {
				"north": {"uv": [0, 0, 2, 2], "texture": "#0"},
				"east": {"uv": [0, 0, 2, 2], "texture": "#0"},
				"south": {"uv": [0, 0, 2, 2], "texture": "#0"},
				"west": {"uv": [0, 0, 2, 2], "texture": "#0"},
				"up": {"uv": [0, 0, 2, 2], "texture": "#0"},
				"down": {"uv": [0, 0, 2, 2], "texture": "#0"}
			}
		},
		{
			"name": "hexadecagon",
			"from": [7.8528, 7.08529, 8.92084],
			"to": [8.1472, 7.23529, 9.58684],
			"rotation": {"angle": -22.5, "axis": "y", "origin": [8, 7.58529, 8.84684]},
			"faces": {
				"north": {"uv": [0, 0, 2, 2], "texture": "#0"},
				"east": {"uv": [0, 0, 2, 2], "texture": "#0"},
				"south": {"uv": [0, 0, 2, 2], "texture": "#0"},
				"west": {"uv": [0, 0, 2, 2], "texture": "#0"},
				"up": {"uv": [0, 0, 2, 2], "texture": "#0"},
				"down": {"uv": [0, 0, 2, 2], "texture": "#0"}
			}
		},
		{
			"name": "hexadecagon",
			"from": [7.8528, 7.08529, 8.92084],
			"to": [8.1472, 7.23529, 9.58684],
			"rotation": {"angle": 0, "axis": "y", "origin": [8, 7.58529, 8.84684]},
			"faces": {
				"north": {"uv": [0, 0, 2, 2], "texture": "#0"},
				"east": {"uv": [0, 0, 2, 2], "texture": "#0"},
				"south": {"uv": [0, 0, 2, 2], "texture": "#0"},
				"west": {"uv": [0, 0, 2, 2], "texture": "#0"},
				"up": {"uv": [0, 0, 2, 2], "texture": "#0"},
				"down": {"uv": [0, 0, 2, 2], "texture": "#0"}
			}
		},
		{
			"name": "hexadecagon",
			"from": [7.8528, 7.08529, 8.92084],
			"to": [8.1472, 7.23529, 9.58684],
			"rotation": {"angle": 22.5, "axis": "y", "origin": [8, 7.58529, 8.84684]},
			"faces": {
				"north": {"uv": [0, 0, 2, 2], "texture": "#0"},
				"east": {"uv": [0, 0, 2, 2], "texture": "#0"},
				"south": {"uv": [0, 0, 2, 2], "texture": "#0"},
				"west": {"uv": [0, 0, 2, 2], "texture": "#0"},
				"up": {"uv": [0, 0, 2, 2], "texture": "#0"},
				"down": {"uv": [0, 0, 2, 2], "texture": "#0"}
			}
		}
	],
	"display": {
		"thirdperson_righthand": {
			"translation": [0, 1, 2.5]
		},
		"firstperson_righthand": {
			"rotation": [0, 17, 17],
			"translation": [-1.25, 4, 2.5],
			"scale": [1, 1, 0.85]
		},
		"gui": {
			"rotation": [79, 47, -93],
			"translation": [-0.75, -0.75, 0]
		},
		"fixed": {
			"rotation": [93, 47, -93],
			"translation": [-0.25, -0.75, -0.5]
		}
	},
	"groups": [0, 1, 2, 3, 4, 5, 6, 7, 8, 9, 10, 11, 12, 13, 14, 15, 16, 17, 18, 19, 20, 21, 22,
		{
			"name": "hexadecagon",
			"origin": [8, 8, 8],
			"children": [23, 24, 25, 26, 27, 28, 29]
		},
		{
			"name": "hexadecagon",
			"origin": [8, 8, 8],
			"children": [30, 31, 32, 33, 34, 35, 36]
		},
		{
			"name": "hexadecagon",
			"origin": [8, 8, 8],
			"children": [37, 38, 39, 40, 41]
		},
		{
			"name": "hexadecagon",
			"origin": [8, 8, 8],
			"children": [42, 43, 44, 45, 46, 47, 48]
		},
		{
			"name": "hexadecagon",
			"origin": [8, 8, 8],
			"children": [49, 50, 51, 52, 53, 54, 55]
		}
	]
}